
    digraph textX {
    fontname = "Bitstream Vera Sans"
    fontsize = 8
    node[
        shape=record,
        style=filled,
        fillcolor=aliceblue
    ]
    nodesep = 0.3
    edge[dir=black,arrowtail=empty]


94292914229472[ label="{Program|}"]

94292914232448[ label="{*Command|}"]

94292914236016[ label="{InitialCommand|x: INT\ly: INT\l}"]

94292914240176[ label="{MoveCommand|direction: Direction\lsteps: INT\l}"]



94292914229472 -> 94292914232448[arrowtail=diamond, dir=both, headlabel="commands 0..*"]
94292914232448 -> 94292914236016 [dir=back]
94292914232448 -> 94292914240176 [dir=back]
match_rules [ shape=plaintext, label=< <table>
	<tr>
		<td><b>Comment</b></td><td>\/\/.*$</td>
	</tr>
	<tr>
		<td><b>Direction</b></td><td>up|down|left|right</td>
	</tr>
</table> >]


}
